%YAML 1.1
%TAG !u! tag:unity3d.com,2011:
--- !u!21 &2100000
Material:
  serializedVersion: 6
  m_ObjectHideFlags: 0
  m_CorrespondingSourceObject: {fileID: 0}
  m_PrefabInstance: {fileID: 0}
  m_PrefabAsset: {fileID: 0}
  m_Name: Moon 1
  m_Shader: {fileID: 10703, guid: 0000000000000000f000000000000000, type: 0}
  m_ShaderKeywords: 
  m_LightmapFlags: 4
  m_EnableInstancingVariants: 0
  m_DoubleSidedGI: 0
  m_CustomRenderQueue: -1
  stringTagMap: {}
  disabledShaderPasses: []
  m_SavedProperties:
    serializedVersion: 3
    m_TexEnvs:
    - _AlphaMask:
        m_Texture: {fileID: 0}
        m_Scale: {x: 1, y: 1}
        m_Offset: {x: 0, y: 0}
    - _BumpMap:
        m_Texture: {fileID: 0}
        m_Scale: {x: 1, y: 1}
        m_Offset: {x: 0, y: 0}
    - _DetailAlbedoMap:
        m_Texture: {fileID: 0}
        m_Scale: {x: 1, y: 1}
        m_Offset: {x: 0, y: 0}
    - _DetailMask:
        m_Texture: {fileID: 0}
        m_Scale: {x: 1, y: 1}
        m_Offset: {x: 0, y: 0}
    - _DetailNormalMap:
        m_Texture: {fileID: 0}
        m_Scale: {x: 1, y: 1}
        m_Offset: {x: 0, y: 0}
    - _EmissionMap:
        m_Texture: {fileID: 0}
        m_Scale: {x: 1, y: 1}
        m_Offset: {x: 0, y: 0}
    - _LayerSurface0:
        m_Texture: {fileID: 0}
        m_Scale: {x: 1, y: 1}
        m_Offset: {x: 0, y: 0}
    - _LayerSurface1:
        m_Texture: {fileID: 0}
        m_Scale: {x: 1, y: 1}
        m_Offset: {x: 0, y: 0}
    - _LayerSurface2:
        m_Texture: {fileID: 0}
        m_Scale: {x: 1, y: 1}
        m_Offset: {x: 0, y: 0}
    - _LayerSurface3:
        m_Texture: {fileID: 0}
        m_Scale: {x: 1, y: 1}
        m_Offset: {x: 0, y: 0}
    - _LayerSurface4:
        m_Texture: {fileID: 0}
        m_Scale: {x: 1, y: 1}
        m_Offset: {x: 0, y: 0}
    - _LayerSurface5:
        m_Texture: {fileID: 0}
        m_Scale: {x: 1, y: 1}
        m_Offset: {x: 0, y: 0}
    - _LayerSurface6:
        m_Texture: {fileID: 0}
        m_Scale: {x: 1, y: 1}
        m_Offset: {x: 0, y: 0}
    - _LayerSurface7:
        m_Texture: {fileID: 0}
        m_Scale: {x: 1, y: 1}
        m_Offset: {x: 0, y: 0}
    - _MainTex:
        m_Texture: {fileID: 2800000, guid: ba7612d424542ba4db2fec1ac2bb913c, type: 3}
        m_Scale: {x: 1, y: 1}
        m_Offset: {x: 0, y: 0}
    - _MetallicGlossMap:
        m_Texture: {fileID: 0}
        m_Scale: {x: 1, y: 1}
        m_Offset: {x: 0, y: 0}
    - _NormalMap:
        m_Texture: {fileID: 0}
        m_Scale: {x: 1, y: 1}
        m_Offset: {x: 0, y: 0}
    - _OcclusionMap:
        m_Texture: {fileID: 0}
        m_Scale: {x: 1, y: 1}
        m_Offset: {x: 0, y: 0}
    - _ParallaxMap:
        m_Texture: {fileID: 0}
        m_Scale: {x: 1, y: 1}
        m_Offset: {x: 0, y: 0}
    - _RoughnessMap:
        m_Texture: {fileID: 0}
        m_Scale: {x: 1, y: 1}
        m_Offset: {x: 0, y: 0}
    m_Floats:
    - _Alpha: 1
    - _BaseMaskType: 0
    - _BumpScale: 1
    - _Cutoff: 0.5
    - _DetailNormalMapScale: 1
    - _DstBlend: 0
    - _GlossMapScale: 1
    - _Glossiness: 0
    - _GlossyReflections: 1
    - _LayerBlendMode0: 0
    - _LayerBlendMode1: 0
    - _LayerBlendMode2: 0
    - _LayerBlendMode3: 0
    - _LayerBlendMode4: 0
    - _LayerBlendMode5: 0
    - _LayerBlendMode6: 0
    - _LayerBlendMode7: 0
    - _LayerMaskType0: 0
    - _LayerMaskType1: 0
    - _LayerMaskType2: 0
    - _LayerMaskType3: 0
    - _LayerMaskType4: 0
    - _LayerMaskType5: 0
    - _LayerMaskType6: 0
    - _LayerMaskType7: 0
    - _LayerSampleMode0: 0
    - _LayerSampleMode1: 0
    - _LayerSampleMode2: 0
    - _LayerSampleMode3: 0
    - _LayerSampleMode4: 0
    - _LayerSampleMode5: 0
    - _LayerSampleMode6: 0
    - _LayerSampleMode7: 0
    - _Metallic: 0
    - _Mode: 0
    - _OcclusionStrength: 1
    - _Parallax: 0.02
    - _SmoothnessTextureChannel: 0
    - _SpecularHighlights: 1
    - _SrcBlend: 1
    - _UVSec: 0
    - _ZWrite: 1
    m_Colors:
    - _BaseColor: {r: 0, g: 0, b: 0, a: 0}
    - _BaseMaskAxis: {r: 0, g: 1, b: 0, a: 0}
    - _BaseMaskParameters: {r: 0, g: 0, b: 0, a: 0}
    - _Color: {r: 0.8, g: 0.8, b: 0.8, a: 1}
    - _DarkMultiplier: {r: 0.6, g: 0.6, b: 0.6, a: 1}
    - _EmissionColor: {r: 0, g: 0, b: 0, a: 0}
    - _LayerColor0: {r: 1, g: 1, b: 1, a: 1}
    - _LayerColor1: {r: 1, g: 1, b: 1, a: 1}
    - _LayerColor2: {r: 1, g: 1, b: 1, a: 1}
    - _LayerColor3: {r: 1, g: 1, b: 1, a: 1}
    - _LayerColor4: {r: 1, g: 1, b: 1, a: 1}
    - _LayerColor5: {r: 1, g: 1, b: 1, a: 1}
    - _LayerColor6: {r: 1, g: 1, b: 1, a: 1}
    - _LayerColor7: {r: 1, g: 1, b: 1, a: 1}
    - _LayerMaskAxis0: {r: 0, g: 1, b: 0, a: 0}
    - _LayerMaskAxis1: {r: 0, g: 1, b: 0, a: 0}
    - _LayerMaskAxis2: {r: 0, g: 1, b: 0, a: 0}
    - _LayerMaskAxis3: {r: 0, g: 1, b: 0, a: 0}
    - _LayerMaskAxis4: {r: 0, g: 1, b: 0, a: 0}
    - _LayerMaskAxis5: {r: 0, g: 1, b: 0, a: 0}
    - _LayerMaskAxis6: {r: 0, g: 1, b: 0, a: 0}
    - _LayerMaskAxis7: {r: 0, g: 1, b: 0, a: 0}
    - _LayerMaskParameters0: {r: 0, g: 0, b: 0, a: 0}
    - _LayerMaskParameters1: {r: 0, g: 0, b: 0, a: 0}
    - _LayerMaskParameters2: {r: 0, g: 0, b: 0, a: 0}
    - _LayerMaskParameters3: {r: 0, g: 0, b: 0, a: 0}
    - _LayerMaskParameters4: {r: 0, g: 0, b: 0, a: 0}
    - _LayerMaskParameters5: {r: 0, g: 0, b: 0, a: 0}
    - _LayerMaskParameters6: {r: 0, g: 0, b: 0, a: 0}
    - _LayerMaskParameters7: {r: 0, g: 0, b: 0, a: 0}
    - _LayerSampleParameters0: {r: 0, g: 0, b: 0, a: 0}
    - _LayerSampleParameters1: {r: 0, g: 0, b: 0, a: 0}
    - _LayerSampleParameters2: {r: 0, g: 0, b: 0, a: 0}
    - _LayerSampleParameters3: {r: 0, g: 0, b: 0, a: 0}
    - _LayerSampleParameters4: {r: 0, g: 0, b: 0, a: 0}
    - _LayerSampleParameters5: {r: 0, g: 0, b: 0, a: 0}
    - _LayerSampleParameters6: {r: 0, g: 0, b: 0, a: 0}
    - _LayerSampleParameters7: {r: 0, g: 0, b: 0, a: 0}
